{
  "success": true,
  "message": "success",
  "data": {
    "total": 10000,
    "total_pages": 1000,
    "current_page": "1",
    "per_page": 10,
    "results": [
      {
        "id": "F4NJPA8J8QM",
        "description": "My Faithful Dog",
        "updated_at": "2025-12-31T12:17:45Z",
        "urls": {
          "raw": "https://images.unsplash.com/photo-1670099677579-61bcc989dba8?ixid=M3wzNjc2NDl8MHwxfHNlYXJjaHwxfHxwb3J0cmFpdCUyMGFuaW1hbHxlbnwwfHx8fDE3NjcxOTQ0Njd8MA&ixlib=rb-4.1.0",
          "full": "https://images.unsplash.com/photo-1670099677579-61bcc989dba8?crop=entropy&cs=srgb&fm=jpg&ixid=M3wzNjc2NDl8MHwxfHNlYXJjaHwxfHxwb3J0cmFpdCUyMGFuaW1hbHxlbnwwfHx8fDE3NjcxOTQ0Njd8MA&ixlib=rb-4.1.0&q=85",
          "regular": "https://images.unsplash.com/photo-1670099677579-61bcc989dba8?crop=entropy&cs=tinysrgb&fit=max&fm=jpg&ixid=M3wzNjc2NDl8MHwxfHNlYXJjaHwxfHxwb3J0cmFpdCUyMGFuaW1hbHxlbnwwfHx8fDE3NjcxOTQ0Njd8MA&ixlib=rb-4.1.0&q=80&w=1080",
          "small": "https://images.unsplash.com/photo-1670099677579-61bcc989dba8?crop=entropy&cs=tinysrgb&fit=max&fm=jpg&ixid=M3wzNjc2NDl8MHwxfHNlYXJjaHwxfHxwb3J0cmFpdCUyMGFuaW1hbHxlbnwwfHx8fDE3NjcxOTQ0Njd8MA&ixlib=rb-4.1.0&q=80&w=400",
          "thumb": "https://images.unsplash.com/photo-1670099677579-61bcc989dba8?crop=entropy&cs=tinysrgb&fit=max&fm=jpg&ixid=M3wzNjc2NDl8MHwxfHNlYXJjaHwxfHxwb3J0cmFpdCUyMGFuaW1hbHxlbnwwfHx8fDE3NjcxOTQ0Njd8MA&ixlib=rb-4.1.0&q=80&w=200"
        },
        "user": {
          "username": "mehdihraad",
          "name": "Mehdi Raad"
        },
        "tags": []
      },
      {
        "id": "tHca5PTWCwk",
        "description": "brown tabby cat",
        "updated_at": "2025-12-31T13:34:39Z",
        "urls": {
          "raw": "https://images.unsplash.com/photo-1573592919522-cb19b002d543?ixid=M3wzNjc2NDl8MHwxfHNlYXJjaHwyfHxwb3J0cmFpdCUyMGFuaW1hbHxlbnwwfHx8fDE3NjcxOTQ0Njd8MA&ixlib=rb-4.1.0",
          "full": "https://images.unsplash.com/photo-1573592919522-cb19b002d543?crop=entropy&cs=srgb&fm=jpg&ixid=M3wzNjc2NDl8MHwxfHNlYXJjaHwyfHxwb3J0cmFpdCUyMGFuaW1hbHxlbnwwfHx8fDE3NjcxOTQ0Njd8MA&ixlib=rb-4.1.0&q=85",
          "regular": "https://images.unsplash.com/photo-1573592919522-cb19b002d543?crop=entropy&cs=tinysrgb&fit=max&fm=jpg&ixid=M3wzNjc2NDl8MHwxfHNlYXJjaHwyfHxwb3J0cmFpdCUyMGFuaW1hbHxlbnwwfHx8fDE3NjcxOTQ0Njd8MA&ixlib=rb-4.1.0&q=80&w=1080",
          "small": "https://images.unsplash.com/photo-1573592919522-cb19b002d543?crop=entropy&cs=tinysrgb&fit=max&fm=jpg&ixid=M3wzNjc2NDl8MHwxfHNlYXJjaHwyfHxwb3J0cmFpdCUyMGFuaW1hbHxlbnwwfHx8fDE3NjcxOTQ0Njd8MA&ixlib=rb-4.1.0&q=80&w=400",
          "thumb": "https://images.unsplash.com/photo-1573592919522-cb19b002d543?crop=entropy&cs=tinysrgb&fit=max&fm=jpg&ixid=M3wzNjc2NDl8MHwxfHNlYXJjaHwyfHxwb3J0cmFpdCUyMGFuaW1hbHxlbnwwfHx8fDE3NjcxOTQ0Njd8MA&ixlib=rb-4.1.0&q=80&w=200"
        },
        "user": {
          "username": "amirtaheri",
          "name": "Amir Taheri"
        },
        "tags": []
      },
      {
        "id": "rJRxrvr5De4",
        "description": "a black and white photo of a dog",
        "updated_at": "2025-12-31T13:42:25Z",
        "urls": {
          "raw": "https://images.unsplash.com/photo-1647530376762-9e71f566bad9?ixid=M3wzNjc2NDl8MHwxfHNlYXJjaHwzfHxwb3J0cmFpdCUyMGFuaW1hbHxlbnwwfHx8fDE3NjcxOTQ0Njd8MA&ixlib=rb-4.1.0",
          "full": "https://images.unsplash.com/photo-1647530376762-9e71f566bad9?crop=entropy&cs=srgb&fm=jpg&ixid=M3wzNjc2NDl8MHwxfHNlYXJjaHwzfHxwb3J0cmFpdCUyMGFuaW1hbHxlbnwwfHx8fDE3NjcxOTQ0Njd8MA&ixlib=rb-4.1.0&q=85",
          "regular": "https://images.unsplash.com/photo-1647530376762-9e71f566bad9?crop=entropy&cs=tinysrgb&fit=max&fm=jpg&ixid=M3wzNjc2NDl8MHwxfHNlYXJjaHwzfHxwb3J0cmFpdCUyMGFuaW1hbHxlbnwwfHx8fDE3NjcxOTQ0Njd8MA&ixlib=rb-4.1.0&q=80&w=1080",
          "small": "https://images.unsplash.com/photo-1647530376762-9e71f566bad9?crop=entropy&cs=tinysrgb&fit=max&fm=jpg&ixid=M3wzNjc2NDl8MHwxfHNlYXJjaHwzfHxwb3J0cmFpdCUyMGFuaW1hbHxlbnwwfHx8fDE3NjcxOTQ0Njd8MA&ixlib=rb-4.1.0&q=80&w=400",
          "thumb": "https://images.unsplash.com/photo-1647530376762-9e71f566bad9?crop=entropy&cs=tinysrgb&fit=max&fm=jpg&ixid=M3wzNjc2NDl8MHwxfHNlYXJjaHwzfHxwb3J0cmFpdCUyMGFuaW1hbHxlbnwwfHx8fDE3NjcxOTQ0Njd8MA&ixlib=rb-4.1.0&q=80&w=200"
        },
        "user": {
          "username": "dynamicwang",
          "name": "Dynamic Wang"
        },
        "tags": []
      },
      {
        "id": "3foPgmUOqw0",
        "description": "a leopard with its mouth open",
        "updated_at": "2025-12-31T10:50:59Z",
        "urls": {
          "raw": "https://images.unsplash.com/photo-1664699276631-25bea2e5a44d?ixid=M3wzNjc2NDl8MHwxfHNlYXJjaHw0fHxwb3J0cmFpdCUyMGFuaW1hbHxlbnwwfHx8fDE3NjcxOTQ0Njd8MA&ixlib=rb-4.1.0",
          "full": "https://images.unsplash.com/photo-1664699276631-25bea2e5a44d?crop=entropy&cs=srgb&fm=jpg&ixid=M3wzNjc2NDl8MHwxfHNlYXJjaHw0fHxwb3J0cmFpdCUyMGFuaW1hbHxlbnwwfHx8fDE3NjcxOTQ0Njd8MA&ixlib=rb-4.1.0&q=85",
          "regular": "https://images.unsplash.com/photo-1664699276631-25bea2e5a44d?crop=entropy&cs=tinysrgb&fit=max&fm=jpg&ixid=M3wzNjc2NDl8MHwxfHNlYXJjaHw0fHxwb3J0cmFpdCUyMGFuaW1hbHxlbnwwfHx8fDE3NjcxOTQ0Njd8MA&ixlib=rb-4.1.0&q=80&w=1080",
          "small": "https://images.unsplash.com/photo-1664699276631-25bea2e5a44d?crop=entropy&cs=tinysrgb&fit=max&fm=jpg&ixid=M3wzNjc2NDl8MHwxfHNlYXJjaHw0fHxwb3J0cmFpdCUyMGFuaW1hbHxlbnwwfHx8fDE3NjcxOTQ0Njd8MA&ixlib=rb-4.1.0&q=80&w=400",
          "thumb": "https://images.unsplash.com/photo-1664699276631-25bea2e5a44d?crop=entropy&cs=tinysrgb&fit=max&fm=jpg&ixid=M3wzNjc2NDl8MHwxfHNlYXJjaHw0fHxwb3J0cmFpdCUyMGFuaW1hbHxlbnwwfHx8fDE3NjcxOTQ0Njd8MA&ixlib=rb-4.1.0&q=80&w=200"
        },
        "user": {
          "username": "mediaecke",
          "name": "MediaEcke"
        },
        "tags": []
      },
      {
        "id": "AN3dbcK_cHg",
        "description": "Proud grayscale rooster",
        "updated_at": "2025-12-31T12:06:56Z",
        "urls": {
          "raw": "https://images.unsplash.com/photo-1609620348316-a006a93e5e6f?ixid=M3wzNjc2NDl8MHwxfHNlYXJjaHw1fHxwb3J0cmFpdCUyMGFuaW1hbHxlbnwwfHx8fDE3NjcxOTQ0Njd8MA&ixlib=rb-4.1.0",
          "full": "https://images.unsplash.com/photo-1609620348316-a006a93e5e6f?crop=entropy&cs=srgb&fm=jpg&ixid=M3wzNjc2NDl8MHwxfHNlYXJjaHw1fHxwb3J0cmFpdCUyMGFuaW1hbHxlbnwwfHx8fDE3NjcxOTQ0Njd8MA&ixlib=rb-4.1.0&q=85",
          "regular": "https://images.unsplash.com/photo-1609620348316-a006a93e5e6f?crop=entropy&cs=tinysrgb&fit=max&fm=jpg&ixid=M3wzNjc2NDl8MHwxfHNlYXJjaHw1fHxwb3J0cmFpdCUyMGFuaW1hbHxlbnwwfHx8fDE3NjcxOTQ0Njd8MA&ixlib=rb-4.1.0&q=80&w=1080",
          "small": "https://images.unsplash.com/photo-1609620348316-a006a93e5e6f?crop=entropy&cs=tinysrgb&fit=max&fm=jpg&ixid=M3wzNjc2NDl8MHwxfHNlYXJjaHw1fHxwb3J0cmFpdCUyMGFuaW1hbHxlbnwwfHx8fDE3NjcxOTQ0Njd8MA&ixlib=rb-4.1.0&q=80&w=400",
          "thumb": "https://images.unsplash.com/photo-1609620348316-a006a93e5e6f?crop=entropy&cs=tinysrgb&fit=max&fm=jpg&ixid=M3wzNjc2NDl8MHwxfHNlYXJjaHw1fHxwb3J0cmFpdCUyMGFuaW1hbHxlbnwwfHx8fDE3NjcxOTQ0Njd8MA&ixlib=rb-4.1.0&q=80&w=200"
        },
        "user": {
          "username": "luciopatoneph",
          "name": "Lucio Patone"
        },
        "tags": []
      },
      {
        "id": "--rC9qbl-WI",
        "description": "a large lion standing next to a baby lion",
        "updated_at": "2025-12-31T13:46:08Z",
        "urls": {
          "raw": "https://images.unsplash.com/photo-1694856358948-fbd1a9738347?ixid=M3wzNjc2NDl8MHwxfHNlYXJjaHw2fHxwb3J0cmFpdCUyMGFuaW1hbHxlbnwwfHx8fDE3NjcxOTQ0Njd8MA&ixlib=rb-4.1.0",
          "full": "https://images.unsplash.com/photo-1694856358948-fbd1a9738347?crop=entropy&cs=srgb&fm=jpg&ixid=M3wzNjc2NDl8MHwxfHNlYXJjaHw2fHxwb3J0cmFpdCUyMGFuaW1hbHxlbnwwfHx8fDE3NjcxOTQ0Njd8MA&ixlib=rb-4.1.0&q=85",
          "regular": "https://images.unsplash.com/photo-1694856358948-fbd1a9738347?crop=entropy&cs=tinysrgb&fit=max&fm=jpg&ixid=M3wzNjc2NDl8MHwxfHNlYXJjaHw2fHxwb3J0cmFpdCUyMGFuaW1hbHxlbnwwfHx8fDE3NjcxOTQ0Njd8MA&ixlib=rb-4.1.0&q=80&w=1080",
          "small": "https://images.unsplash.com/photo-1694856358948-fbd1a9738347?crop=entropy&cs=tinysrgb&fit=max&fm=jpg&ixid=M3wzNjc2NDl8MHwxfHNlYXJjaHw2fHxwb3J0cmFpdCUyMGFuaW1hbHxlbnwwfHx8fDE3NjcxOTQ0Njd8MA&ixlib=rb-4.1.0&q=80&w=400",
          "thumb": "https://images.unsplash.com/photo-1694856358948-fbd1a9738347?crop=entropy&cs=tinysrgb&fit=max&fm=jpg&ixid=M3wzNjc2NDl8MHwxfHNlYXJjaHw2fHxwb3J0cmFpdCUyMGFuaW1hbHxlbnwwfHx8fDE3NjcxOTQ0Njd8MA&ixlib=rb-4.1.0&q=80&w=200"
        },
        "user": {
          "username": "giusedr",
          "name": "giuse"
        },
        "tags": []
      },
      {
        "id": "zpMfMMDQDhQ",
        "description": "brown cow on gray sand near body of water during daytime",
        "updated_at": "2025-12-31T09:33:14Z",
        "urls": {
          "raw": "https://images.unsplash.com/photo-1629463882638-1554fe759498?ixid=M3wzNjc2NDl8MHwxfHNlYXJjaHw3fHxwb3J0cmFpdCUyMGFuaW1hbHxlbnwwfHx8fDE3NjcxOTQ0Njd8MA&ixlib=rb-4.1.0",
          "full": "https://images.unsplash.com/photo-1629463882638-1554fe759498?crop=entropy&cs=srgb&fm=jpg&ixid=M3wzNjc2NDl8MHwxfHNlYXJjaHw3fHxwb3J0cmFpdCUyMGFuaW1hbHxlbnwwfHx8fDE3NjcxOTQ0Njd8MA&ixlib=rb-4.1.0&q=85",
          "regular": "https://images.unsplash.com/photo-1629463882638-1554fe759498?crop=entropy&cs=tinysrgb&fit=max&fm=jpg&ixid=M3wzNjc2NDl8MHwxfHNlYXJjaHw3fHxwb3J0cmFpdCUyMGFuaW1hbHxlbnwwfHx8fDE3NjcxOTQ0Njd8MA&ixlib=rb-4.1.0&q=80&w=1080",
          "small": "https://images.unsplash.com/photo-1629463882638-1554fe759498?crop=entropy&cs=tinysrgb&fit=max&fm=jpg&ixid=M3wzNjc2NDl8MHwxfHNlYXJjaHw3fHxwb3J0cmFpdCUyMGFuaW1hbHxlbnwwfHx8fDE3NjcxOTQ0Njd8MA&ixlib=rb-4.1.0&q=80&w=400",
          "thumb": "https://images.unsplash.com/photo-1629463882638-1554fe759498?crop=entropy&cs=tinysrgb&fit=max&fm=jpg&ixid=M3wzNjc2NDl8MHwxfHNlYXJjaHw3fHxwb3J0cmFpdCUyMGFuaW1hbHxlbnwwfHx8fDE3NjcxOTQ0Njd8MA&ixlib=rb-4.1.0&q=80&w=200"
        },
        "user": {
          "username": "yannfj",
          "name": "Yann Jacobsen"
        },
        "tags": []
      },
      {
        "id": "aYu7W7zauos",
        "description": "a black and white photo of a cat",
        "updated_at": "2025-12-31T12:18:51Z",
        "urls": {
          "raw": "https://images.unsplash.com/photo-1698284044006-fc91b53c55cf?ixid=M3wzNjc2NDl8MHwxfHNlYXJjaHw4fHxwb3J0cmFpdCUyMGFuaW1hbHxlbnwwfHx8fDE3NjcxOTQ0Njd8MA&ixlib=rb-4.1.0",
          "full": "https://images.unsplash.com/photo-1698284044006-fc91b53c55cf?crop=entropy&cs=srgb&fm=jpg&ixid=M3wzNjc2NDl8MHwxfHNlYXJjaHw4fHxwb3J0cmFpdCUyMGFuaW1hbHxlbnwwfHx8fDE3NjcxOTQ0Njd8MA&ixlib=rb-4.1.0&q=85",
          "regular": "https://images.unsplash.com/photo-1698284044006-fc91b53c55cf?crop=entropy&cs=tinysrgb&fit=max&fm=jpg&ixid=M3wzNjc2NDl8MHwxfHNlYXJjaHw4fHxwb3J0cmFpdCUyMGFuaW1hbHxlbnwwfHx8fDE3NjcxOTQ0Njd8MA&ixlib=rb-4.1.0&q=80&w=1080",
          "small": "https://images.unsplash.com/photo-1698284044006-fc91b53c55cf?crop=entropy&cs=tinysrgb&fit=max&fm=jpg&ixid=M3wzNjc2NDl8MHwxfHNlYXJjaHw4fHxwb3J0cmFpdCUyMGFuaW1hbHxlbnwwfHx8fDE3NjcxOTQ0Njd8MA&ixlib=rb-4.1.0&q=80&w=400",
          "thumb": "https://images.unsplash.com/photo-1698284044006-fc91b53c55cf?crop=entropy&cs=tinysrgb&fit=max&fm=jpg&ixid=M3wzNjc2NDl8MHwxfHNlYXJjaHw4fHxwb3J0cmFpdCUyMGFuaW1hbHxlbnwwfHx8fDE3NjcxOTQ0Njd8MA&ixlib=rb-4.1.0&q=80&w=200"
        },
        "user": {
          "username": "jkmatt",
          "name": "Jon Matthews"
        },
        "tags": []
      },
      {
        "id": "nnVhZ820zdo",
        "description": "A brown alpaca with fluffy hair looks forward.",
        "updated_at": "2025-12-29T17:06:24Z",
        "urls": {
          "raw": "https://images.unsplash.com/photo-1766853172366-962220d00764?ixid=M3wzNjc2NDl8MHwxfHNlYXJjaHw5fHxwb3J0cmFpdCUyMGFuaW1hbHxlbnwwfHx8fDE3NjcxOTQ0Njd8MA&ixlib=rb-4.1.0",
          "full": "https://images.unsplash.com/photo-1766853172366-962220d00764?crop=entropy&cs=srgb&fm=jpg&ixid=M3wzNjc2NDl8MHwxfHNlYXJjaHw5fHxwb3J0cmFpdCUyMGFuaW1hbHxlbnwwfHx8fDE3NjcxOTQ0Njd8MA&ixlib=rb-4.1.0&q=85",
          "regular": "https://images.unsplash.com/photo-1766853172366-962220d00764?crop=entropy&cs=tinysrgb&fit=max&fm=jpg&ixid=M3wzNjc2NDl8MHwxfHNlYXJjaHw5fHxwb3J0cmFpdCUyMGFuaW1hbHxlbnwwfHx8fDE3NjcxOTQ0Njd8MA&ixlib=rb-4.1.0&q=80&w=1080",
          "small": "https://images.unsplash.com/photo-1766853172366-962220d00764?crop=entropy&cs=tinysrgb&fit=max&fm=jpg&ixid=M3wzNjc2NDl8MHwxfHNlYXJjaHw5fHxwb3J0cmFpdCUyMGFuaW1hbHxlbnwwfHx8fDE3NjcxOTQ0Njd8MA&ixlib=rb-4.1.0&q=80&w=400",
          "thumb": "https://images.unsplash.com/photo-1766853172366-962220d00764?crop=entropy&cs=tinysrgb&fit=max&fm=jpg&ixid=M3wzNjc2NDl8MHwxfHNlYXJjaHw5fHxwb3J0cmFpdCUyMGFuaW1hbHxlbnwwfHx8fDE3NjcxOTQ0Njd8MA&ixlib=rb-4.1.0&q=80&w=200"
        },
        "user": {
          "username": "wolfgang_hasselmann",
          "name": "Wolfgang Hasselmann"
        },
        "tags": []
      },
      {
        "id": "vnSuhnBU3iU",
        "description": "an otter standing on a rock looking up",
        "updated_at": "2025-12-31T09:22:34Z",
        "urls": {
          "raw": "https://images.unsplash.com/photo-1710638961604-17d40b1c5f39?ixid=M3wzNjc2NDl8MHwxfHNlYXJjaHwxMHx8cG9ydHJhaXQlMjBhbmltYWx8ZW58MHx8fHwxNzY3MTk0NDY3fDA&ixlib=rb-4.1.0",
          "full": "https://images.unsplash.com/photo-1710638961604-17d40b1c5f39?crop=entropy&cs=srgb&fm=jpg&ixid=M3wzNjc2NDl8MHwxfHNlYXJjaHwxMHx8cG9ydHJhaXQlMjBhbmltYWx8ZW58MHx8fHwxNzY3MTk0NDY3fDA&ixlib=rb-4.1.0&q=85",
          "regular": "https://images.unsplash.com/photo-1710638961604-17d40b1c5f39?crop=entropy&cs=tinysrgb&fit=max&fm=jpg&ixid=M3wzNjc2NDl8MHwxfHNlYXJjaHwxMHx8cG9ydHJhaXQlMjBhbmltYWx8ZW58MHx8fHwxNzY3MTk0NDY3fDA&ixlib=rb-4.1.0&q=80&w=1080",
          "small": "https://images.unsplash.com/photo-1710638961604-17d40b1c5f39?crop=entropy&cs=tinysrgb&fit=max&fm=jpg&ixid=M3wzNjc2NDl8MHwxfHNlYXJjaHwxMHx8cG9ydHJhaXQlMjBhbmltYWx8ZW58MHx8fHwxNzY3MTk0NDY3fDA&ixlib=rb-4.1.0&q=80&w=400",
          "thumb": "https://images.unsplash.com/photo-1710638961604-17d40b1c5f39?crop=entropy&cs=tinysrgb&fit=max&fm=jpg&ixid=M3wzNjc2NDl8MHwxfHNlYXJjaHwxMHx8cG9ydHJhaXQlMjBhbmltYWx8ZW58MHx8fHwxNzY3MTk0NDY3fDA&ixlib=rb-4.1.0&q=80&w=200"
        },
        "user": {
          "username": "icedcocoa",
          "name": "Hoyoun Lee"
        },
        "tags": []
      }
    ]
  },
  "timestamp": "2026-01-01T15:21:07.205Z"
}